Citi Bike Jersey City
…
Trips

There are 50 stations serving Jersey Bikes across Jersey city.

These are the top 10 most frequent start stations and the related number of trips:

origin <- df %>%  group_by(start_station_name) %>% count() %>%  arrange(desc(n))
origin

## # A tibble: 61 x 2
## # Groups:   start_station_name [61]
##    start_station_name     n
##    <chr>              <int>
##  1 Grove St PATH      96643
##  2 Exchange Place     54957
##  3 Hamilton Park      52890
##  4 Sip Ave            48134
##  5 Newport PATH       39888
##  6 Newark Ave         27059
##  7 Newport Pkwy       26945
##  8 Van Vorst Park     26235
##  9 Warren St          26099
## 10 Morris Canal       25575
## # ... with 51 more rows

These are the top 10 most frequent end stations and the related number of trips:

destination <- df %>%  group_by(end_station_name) %>%  count %>%  arrange(desc(n))
destination

## # A tibble: 203 x 2
## # Groups:   end_station_name [203]
##    end_station_name      n
##    <chr>             <int>
##  1 Grove St PATH    123218
##  2 Exchange Place    66770
##  3 Hamilton Park     50201
##  4 Sip Ave           43890
##  5 Newport PATH      41805
##  6 Newport Pkwy      26645
##  7 Warren St         25813
##  8 Essex Light Rail  25699
##  9 Newark Ave        25051
## 10 City Hall         24948
## # ... with 193 more rows

These are the most popular routes:

combination<- df %>% group_by(start_station_name, end_station_name) %>% tally() %>%  arrange(desc(n))
combination

## # A tibble: 3,464 x 3
## # Groups:   start_station_name [61]
##    start_station_name end_station_name     n
##    <chr>              <chr>            <int>
##  1 Hamilton Park      Grove St PATH    20087
##  2 Grove St PATH      Hamilton Park    14273
##  3 Brunswick St       Grove St PATH    13510
##  4 Morris Canal       Exchange Place   11525
##  5 McGinley Square    Sip Ave          10898
##  6 Van Vorst Park     Grove St PATH    10401
##  7 Sip Ave            McGinley Square   9366
##  8 Grove St PATH      Brunswick St      9202
##  9 Exchange Place     Morris Canal      8653
## 10 Jersey & 6th St    Grove St PATH     8195
## # ... with 3,454 more rows

And these are the most popular routes by time of the day:

combination_hour<- df %>% group_by(start_station_name, end_station_name, hour_of_day) %>% tally() %>%  arrange(desc(n))
combination_hour

## # A tibble: 36,014 x 4
## # Groups:   start_station_name, end_station_name [3,464]
##    start_station_name end_station_name hour_of_day     n
##    <chr>              <chr>                  <int> <int>
##  1 Hamilton Park      Grove St PATH              8  7081
##  2 Brunswick St       Grove St PATH              8  4433
##  3 Hamilton Park      Grove St PATH              7  4137
##  4 Grove St PATH      Hamilton Park             18  3578
##  5 Morris Canal       Exchange Place             8  3249
##  6 McGinley Square    Sip Ave                    8  3097
##  7 Grove St PATH      Hamilton Park             17  2552
##  8 Hamilton Park      Grove St PATH              9  2360
##  9 Van Vorst Park     Grove St PATH              8  2222
## 10 Essex Light Rail   Exchange Place             7  2116
## # ... with 36,004 more rows
…
Bike Ids

There have been 1564 different bike ids.

Bike ids that have made more trips are:

journeys_ind <- df %>% group_by(bike_id) %>% count() %>% arrange(desc(n))
journeys_ind

## # A tibble: 1,564 x 2
## # Groups:   bike_id [1,564]
##    bike_id     n
##      <int> <int>
##  1   26223  1483
##  2   26306  1473
##  3   26182  1464
##  4   26217  1461
##  5   26295  1459
##  6   26276  1458
##  7   26215  1446
##  8   26219  1438
##  9   26151  1436
## 10   26192  1433
## # ... with 1,554 more rows
…
avg_trips <- mean(journeys_ind$n)
avg_trips

## [1] 528.1407

And this is the average life of a bike id:

bikeid_life <- df %>%  group_by(bike_id) %>%
  summarise(min_date = min(start_time), max_date = max(stop_time), 
            life = min_date - max_date)

bikeid_life

## # A tibble: 1,564 x 4
##    bike_id min_date            max_date            life              
##      <int> <dttm>              <dttm>              <time>            
##  1   14529 2017-07-17 08:13:29 2017-07-18 07:47:16 -23.563056 hours  
##  2   14552 2016-05-26 12:10:20 2016-05-27 16:01:10 " -1.160301 hours"
##  3   14556 2017-05-18 19:16:22 2017-05-30 17:54:50 -11.943380 hours  
##  4   14632 2016-02-10 07:27:34 2016-02-10 07:30:37 " -3.050000 hours"
##  5   14705 2016-06-08 21:33:32 2016-06-09 12:18:20 -14.746667 hours  
##  6   14716 2017-06-08 16:02:34 2017-06-09 08:19:48 -16.287222 hours  
##  7   14717 2016-04-30 10:39:56 2016-05-01 07:33:53 -20.899167 hours  
##  8   14786 2016-06-18 12:51:59 2016-06-18 17:03:53 " -4.198333 hours"
##  9   14863 2017-04-10 02:27:45 2017-05-02 18:10:26 -22.654641 hours  
## 10   14872 2016-06-17 16:47:33 2016-06-17 18:04:50 " -1.288056 hours"
## # ... with 1,554 more rows
…
